﻿{
  "message": "OneFromOneSection ditribution",
  "result": "OK",
  "items": [
    {
      "message": "Item 'ARTICLE1' (100); quantity: 10",
      "result": "OK",
      "items": [
        {
          "message": "Section 'SEC1'",
          "items": [
            {
              "message": "Item 'ARTICLE1' (100); quantity: 10",
              "result": "NotFound"
            }
          ]
        },
        {
          "message": "Section 'SEC2'",
          "items": [
            {
              "message": "Item 'ARTICLE1' (100); quantity: 10",
              "result": "OK",
              "items": [
                {
                  "message": "Strategy ByExpiration",
                  "items": [
                    {
                      "message": "Method_ByExpiration",
                      "result": "OK",
                      "items": [
                        {
                          "message": "Found by expiration; moveQuantity: 10; position: POS2; carrierNum: CARR1; batchNum: BATCH2; expirationDate: 2033-01-01;"
                        }
                      ]
                    }
                  ]
                }
              ]
            }
          ]
        }
      ]
    },
    {
      "message": "Item 'ARTICLE2' (200); quantity: 5",
      "result": "OK",
      "items": [
        {
          "message": "Section 'SEC1'",
          "items": [
            {
              "message": "Item 'ARTICLE2' (200); quantity: 5",
              "result": "OK",
              "items": [
                {
                  "message": "Strategy ByExpiration",
                  "items": [
                    {
                      "message": "Method_ByExpiration",
                      "result": "OK",
                      "items": [
                        {
                          "message": "Found by expiration; moveQuantity: 5; position: POS1; carrierNum: CARR1; batchNum: BATCH1; expirationDate: 2034-01-01;"
                        }
                      ]
                    }
                  ]
                }
              ]
            }
          ]
        }
      ]
    }
  ]
}