﻿{
  "message": "AllFromOneSection ditribution",
  "result": "OK",
  "items": [
    {
      "message": "Section 'SEC1'",
      "items": [
        {
          "message": "Item 'ARTICLE1' (100); quantity: 12",
          "result": "OK",
          "items": [
            {
              "message": "Strategy BigOrSmallFirst",
              "items": [
                {
                  "message": "Method_BigPack",
                  "items": [
                    {
                      "message": "Found bigPack size item; moveQuantity: 10; position: POS2; carrierNum: CARR1; batchNum: BATCH2; expirationDate: 2033-01-01;"
                    },
                    {
                      "message": "Found bigger item; moveQuantity: 2; position: POS1; carrierNum: CARR1; batchNum: BATCH1; expirationDate: 2034-01-01;"
                    }
                  ]
                }
              ]
            }
          ]
        }
      ]
    }
  ]
}