﻿{
  "message": "AllFromOneSection ditribution",
  "result": "OK",
  "items": [
    {
      "message": "Section 'SEC1'",
      "items": [
        {
          "message": "Item 'ARTICLE1' (100); quantity: 1",
          "result": "OK",
          "items": [
            {
              "message": "Strategy ByExpiration",
              "items": [
                {
                  "message": "Method_ByExpiration",
                  "result": "OK",
                  "items": [
                    {
                      "message": "Found by expiration; moveQuantity: 1; position: POS2; carrierNum: CARR1; batchNum: BATCH2; expirationDate: 2034-01-01;"
                    }
                  ]
                }
              ]
            }
          ]
        }
      ]
    }
  ]
}