ClassName,EnumName,EnumItem,EnumItemValue,Display
#
# Worker
Worker,WorkerClassEnum,Any,0,Nic
Worker,WorkerClassEnum,CanDispatch,1,Vyskladnění
Worker,WorkerClassEnum,CanReceive,2,Naskladnění
Worker,WorkerClassEnum,CanManage,4,Dispečer
Worker,WorkerClassEnum,CanMove,8,Přeskladnění
Worker,WorkerClassEnum,CanStoIn,16,Inventura
Worker,WorkerClassEnum,CanEditUsers,32,Seznam pracovníků
Worker,WorkerClassEnum,CanViewReports,64,Přehledy
Worker,WorkerClassEnum,CanDispatchMedicines,128,Léky
Worker,WorkerClassEnum,CanDispatchCytostatics,256,Cytostatika
Worker,WorkerClassEnum,IsSuperUser,512,Správce
Worker,WorkerClassEnum,CanPrintWorkerReport,1024,Report práce skladníků
Worker,WorkerClassEnum,CanStoReadOrigState,2048,Inventura - načtení původního stavu
#
# InternMessage
InternMessage,MessageSeverityEnum,Low,0,
InternMessage,MessageSeverityEnum,High,10,
InternMessage,MessageSeverityEnum,Error,20,
#
# Position
Position,PositionCategoryEnum,Store,0,Sklad
Position,PositionCategoryEnum,Receive,1,Příjem
Position,PositionCategoryEnum,Dispatch,2,Expedice
Position,PositionCategoryEnum,Special,3,Speciální
#
Position,PositionAttributeEnum,None,0,Nic
Position,PositionAttributeEnum,Cooling,1,Lednice
Position,PositionAttributeEnum,FreezeBox,2,Mrazák
#
# StockTakingSnapshot
StockTakingSnapshot,StockTakingSnapshotClassEnum,Internal,0,
StockTakingSnapshot,StockTakingSnapshotClassEnum,Outer,1,
#
# Prefix
Prefix,StoreMoveDocType,MoDocTypeNotSpecified,0,Neurčeno
Prefix,StoreMoveDocType,MoDocTypeReceive,1,Příjem
Prefix,StoreMoveDocType,MoDocTypeRPC,2,RPC
Prefix,StoreMoveDocType,MoDocTypeStoreIN,3,Naskladnění
Prefix,StoreMoveDocType,MoDocTypeMove,4,Přesun
Prefix,StoreMoveDocType,MoDocTypeDispatch,5,Vyskladnění
Prefix,StoreMoveDocType,MoDocTypeExped,6,Expedice
Prefix,StoreMoveDocType,MoDocTypeDirMove,9,Inventura
Prefix,StoreMoveDocType,MoDocTypeStockTaking,10,Přesun
#
Prefix,DocDirectionType,In,1,Příjem
Prefix,DocDirectionType,Out,-1,Výdej
#
# PrinterType
PrinterType,PrinterClassEnum,PrinterClassA4,0,A4
PrinterType,PrinterClassEnum,PrinterBarcodeNarrow,1,Štítky - úzké
PrinterType,PrinterClassEnum,PrinterBarcodeWide,2,Štítky - široké
#
# Truck
Truck,TruckRegionEnum,None,0,Žádný
Truck,TruckRegionEnum,Czech,1,Čechy
Truck,TruckRegionEnum,Moravia,2,Morava
Truck,TruckRegionEnum,Prag,3,Praha
# Article
Article,SpecFeaturesEnum,Any,0,Nic
Article,SpecFeaturesEnum,Cooled,1,Lednice
Article,SpecFeaturesEnum,Medicines,2,Léky
Article,SpecFeaturesEnum,Cytostatics,4,Cytostatika
Article,SpecFeaturesEnum,CheckOnReceive,8,Ověřit příjem
# DeliveryDirection
DeliveryDirection,DeliveryProviderEnum,NONE,0,Není
DeliveryDirection,DeliveryProviderEnum,PPL,1,PPL
DeliveryDirection,DeliveryProviderEnum,DPD,2,DPD
DeliveryDirection,DeliveryProviderEnum,CPOST,3,Česká pošta
DeliveryDirection,DeliveryPaymentEnum,SUPP,1,Dodavatelem
DeliveryDirection,DeliveryPaymentEnum,ACC,2,Na bankovní účet
DeliveryDirection,DeliveryPaymentEnum,CHOD,3,Platba dobírkou
DeliveryDirection,DeliveryPaymentEnum,CAOD,4,Platba dobírkou kartou
DeliveryDirection,DeliveryPaymentEnum,CARD,5,Platba platební kartou
DeliveryDirection,DeliveryPaymentEnum,ADV,6,Zálohovým listem
DeliveryDirection,DeliveryCountryEnum,CZ,1,Česká republika
DeliveryDirection,DeliveryCountryEnum,SK,2,Slovensko
DeliveryDirection,DeliveryCurrencyEnum,CZK,1,Česká koruna
DeliveryDirection,DeliveryCurrencyEnum,EUR,2,Euro
#
# MessageBus
MessageBus,MessageBusTypeEnum,ExportDirection,0,Export dokladů
MessageBus,MessageBusTypeEnum,ExportABRA,10,Export šarží
MessageBus,MessageBusTypeEnum,SendMail,20,Odeslání mailu
MessageBus,MessageBusTypeEnum,ExportNemStore,30,Export NemStore
