{
  "S4_LOCALDB_CN": "Server=STORE3;Database=S4_KHL;User ID=s4khl;Password=Asd123Eefj_456",
  "instanceName": "KHL-produkce",
  "terminalUrl": "http://192.168.2.198:83",
  "exchange": {
    "read": {
      "userID": "AAAA1234",
      "dispatch": {
        "path": {
          "pathError": "c:\\S4_KHL\\ABRA_UPLOAD\\dispatch\\error\\",
          "pathArchive": "c:\\S4_KHL\\ABRA_UPLOAD\\dispatch\\archive\\"
        }
      },
      "receive": {
        "path": {
          "pathError": "c:\\S4_KHL\\ABRA_UPLOAD\\receive\\error\\",
          "pathArchive": "c:\\S4_KHL\\ABRA_UPLOAD\\receive\\archive\\"
        }
      },
      "article": {
        "path": {
          "pathError": "c:\\S4_KHL\\ABRA_UPLOAD\\article\\error\\",
          "pathArchive": "c:\\S4_KHL\\ABRA_UPLOAD\\article\\archive\\"
        }
      },
      "invoice": {
        "path": {
          "pathError": "c:\\S4_KHL\\ABRA_UPLOAD\\invoice\\error\\",
          "pathArchive": "c:\\S4_KHL\\ABRA_UPLOAD\\invoice\\archive\\"
        }
      }
    }
  }
}
